{"dir":"myApp",
"modulo":"invitado",
"arr":[
    {"dir":"packs" , "typ":"js" , "arc":"jquery/jquery.dataTables"},
    {"dir":"FDSoil", "typ":"js" , "arc":"menu"      },
    {"dir":"FDSoil", "typ":"js" , "arc":"alerts"    },
    {"dir":"FDSoil", "typ":"js" , "arc":"relocate"  },
    {"dir":"FDSoil", "typ":"js" , "arc":"validar"   },
    {"dir":"FDSoil", "typ":"js" , "arc":"tabla"     },
    {"dir":"appOrg", "typ":"js" , "arc":"app"       },
    {"dir":"appOrg", "typ":"js" , "arc":"validar"   },
    {"dir":"appOrg", "typ":"css", "arc":"tpl"       },
    {"dir":"appOrg", "typ":"css", "arc":"form"      },
    {"dir":"appOrg", "typ":"css", "arc":"menu"      },
    {"dir":"appOrg", "typ":"css", "arc":"alerts"    },
    {"dir":"appOrg", "typ":"css", "arc":"jqry_table"},
    {"dir":"modulo", "typ":"js" , "arc":"submit"    }
]}